{
  "artists": {
    "href": "https://api.spotify.com/v1/search?query=Lil&type=artist&offset=0&limit=10",
    "items": [
      {
        "external_urls": {
          "spotify": "https://open.spotify.com/artist/5f7VJjfbwm532GiveGC0ZK"
        },
        "followers": {
          "href": null,
          "total": 14253314
        },
        "genres": [
          "atl hip hop",
          "atl trap",
          "rap",
          "trap"
        ],
        "href": "https://api.spotify.com/v1/artists/5f7VJjfbwm532GiveGC0ZK",
        "id": "5f7VJjfbwm532GiveGC0ZK",
        "images": [
          {
            "height": 640,
            "url": "https://i.scdn.co/image/ab6761610000e5eb6cad3eff5adc29e20f189a6c",
            "width": 640
          },
          {
            "height": 320,
            "url": "https://i.scdn.co/image/ab676161000051746cad3eff5adc29e20f189a6c",
            "width": 320
          },
          {
            "height": 160,
            "url": "https://i.scdn.co/image/ab6761610000f1786cad3eff5adc29e20f189a6c",
            "width": 160
          }
        ],
        "name": "Lil Baby",
        "popularity": 88,
        "type": "artist",
        "uri": "spotify:artist:5f7VJjfbwm532GiveGC0ZK"
      },
      {
        "external_urls": {
          "spotify": "https://open.spotify.com/artist/6FAo7ORAHEzSSf5q10LLfN"
        },
        "followers": {
          "href": null,
          "total": 391981
        },
        "genres": [
          "meme"
        ],
        "href": "https://api.spotify.com/v1/artists/6FAo7ORAHEzSSf5q10LLfN",
        "id": "6FAo7ORAHEzSSf5q10LLfN",
        "images": [
          {
            "height": 640,
            "url": "https://i.scdn.co/image/ab6761610000e5ebe7d9ec9b07af1c7eedb7a8d1",
            "width": 640
          },
          {
            "height": 320,
            "url": "https://i.scdn.co/image/ab67616100005174e7d9ec9b07af1c7eedb7a8d1",
            "width": 320
          },
          {
            "height": 160,
            "url": "https://i.scdn.co/image/ab6761610000f178e7d9ec9b07af1c7eedb7a8d1",
            "width": 160
          }
        ],
        "name": "Lil Mabu",
        "popularity": 73,
        "type": "artist",
        "uri": "spotify:artist:6FAo7ORAHEzSSf5q10LLfN"
      },
      {
        "external_urls": {
          "spotify": "https://open.spotify.com/artist/3hcs9uc56yIGFCSy9leWe7"
        },
        "followers": {
          "href": null,
          "total": 5641954
        },
        "genres": [
          "chicago drill",
          "chicago rap",
          "drill",
          "hip hop",
          "rap",
          "trap"
        ],
        "href": "https://api.spotify.com/v1/artists/3hcs9uc56yIGFCSy9leWe7",
        "id": "3hcs9uc56yIGFCSy9leWe7",
        "images": [
          {
            "height": 640,
            "url": "https://i.scdn.co/image/ab6761610000e5eba0461c1f2218374aa672ce4e",
            "width": 640
          },
          {
            "height": 320,
            "url": "https://i.scdn.co/image/ab67616100005174a0461c1f2218374aa672ce4e",
            "width": 320
          },
          {
            "height": 160,
            "url": "https://i.scdn.co/image/ab6761610000f178a0461c1f2218374aa672ce4e",
            "width": 160
          }
        ],
        "name": "Lil Durk",
        "popularity": 87,
        "type": "artist",
        "uri": "spotify:artist:3hcs9uc56yIGFCSy9leWe7"
      },
      {
        "external_urls": {
          "spotify": "https://open.spotify.com/artist/4O15NlyKLIASxsJ0PrXPfz"
        },
        "followers": {
          "href": null,
          "total": 15141198
        },
        "genres": [
          "melodic rap",
          "philly rap",
          "rage rap",
          "rap"
        ],
        "href": "https://api.spotify.com/v1/artists/4O15NlyKLIASxsJ0PrXPfz",
        "id": "4O15NlyKLIASxsJ0PrXPfz",
        "images": [
          {
            "height": 640,
            "url": "https://i.scdn.co/image/ab6761610000e5eb30122c0d3ead72f96bb5ee93",
            "width": 640
          },
          {
            "height": 320,
            "url": "https://i.scdn.co/image/ab6761610000517430122c0d3ead72f96bb5ee93",
            "width": 320
          },
          {
            "height": 160,
            "url": "https://i.scdn.co/image/ab6761610000f17830122c0d3ead72f96bb5ee93",
            "width": 160
          }
        ],
        "name": "Lil Uzi Vert",
        "popularity": 86,
        "type": "artist",
        "uri": "spotify:artist:4O15NlyKLIASxsJ0PrXPfz"
      },
      {
        "external_urls": {
          "spotify": "https://open.spotify.com/artist/55Aa2cqylxrFIXC767Z865"
        },
        "followers": {
          "href": null,
          "total": 13600713
        },
        "genres": [
          "hip hop",
          "new orleans rap",
          "pop rap",
          "rap",
          "trap"
        ],
        "href": "https://api.spotify.com/v1/artists/55Aa2cqylxrFIXC767Z865",
        "id": "55Aa2cqylxrFIXC767Z865",
        "images": [
          {
            "height": 640,
            "url": "https://i.scdn.co/image/ab6761610000e5ebc63aded6f4bf4d06d1377106",
            "width": 640
          },
          {
            "height": 320,
            "url": "https://i.scdn.co/image/ab67616100005174c63aded6f4bf4d06d1377106",
            "width": 320
          },
          {
            "height": 160,
            "url": "https://i.scdn.co/image/ab6761610000f178c63aded6f4bf4d06d1377106",
            "width": 160
          }
        ],
        "name": "Lil Wayne",
        "popularity": 85,
        "type": "artist",
        "uri": "spotify:artist:55Aa2cqylxrFIXC767Z865"
      },
      {
        "external_urls": {
          "spotify": "https://open.spotify.com/artist/2kCcBybjl3SAtIcwdWpUe3"
        },
        "followers": {
          "href": null,
          "total": 10135375
        },
        "genres": [
          "cloud rap",
          "emo rap",
          "lgbtq+ hip hop"
        ],
        "href": "https://api.spotify.com/v1/artists/2kCcBybjl3SAtIcwdWpUe3",
        "id": "2kCcBybjl3SAtIcwdWpUe3",
        "images": [
          {
            "height": 640,
            "url": "https://i.scdn.co/image/ab6761610000e5eb6685f03de475c4efb27da3c4",
            "width": 640
          },
          {
            "height": 320,
            "url": "https://i.scdn.co/image/ab676161000051746685f03de475c4efb27da3c4",
            "width": 320
          },
          {
            "height": 160,
            "url": "https://i.scdn.co/image/ab6761610000f1786685f03de475c4efb27da3c4",
            "width": 160
          }
        ],
        "name": "Lil Peep",
        "popularity": 82,
        "type": "artist",
        "uri": "spotify:artist:2kCcBybjl3SAtIcwdWpUe3"
      },
      {
        "external_urls": {
          "spotify": "https://open.spotify.com/artist/6icQOAFXDZKsumw3YXyusw"
        },
        "followers": {
          "href": null,
          "total": 9022312
        },
        "genres": [
          "atl hip hop",
          "melodic rap",
          "rap",
          "trap"
        ],
        "href": "https://api.spotify.com/v1/artists/6icQOAFXDZKsumw3YXyusw",
        "id": "6icQOAFXDZKsumw3YXyusw",
        "images": [
          {
            "height": 640,
            "url": "https://i.scdn.co/image/ab6761610000e5eb86c7c38d4c8c461dba55035c",
            "width": 640
          },
          {
            "height": 320,
            "url": "https://i.scdn.co/image/ab6761610000517486c7c38d4c8c461dba55035c",
            "width": 320
          },
          {
            "height": 160,
            "url": "https://i.scdn.co/image/ab6761610000f17886c7c38d4c8c461dba55035c",
            "width": 160
          }
        ],
        "name": "Lil Yachty",
        "popularity": 77,
        "type": "artist",
        "uri": "spotify:artist:6icQOAFXDZKsumw3YXyusw"
      },
      {
        "external_urls": {
          "spotify": "https://open.spotify.com/artist/6jGMq4yGs7aQzuGsMgVgZR"
        },
        "followers": {
          "href": null,
          "total": 6612366
        },
        "genres": [
          "brooklyn drill",
          "melodic rap",
          "nyc rap",
          "rap"
        ],
        "href": "https://api.spotify.com/v1/artists/6jGMq4yGs7aQzuGsMgVgZR",
        "id": "6jGMq4yGs7aQzuGsMgVgZR",
        "images": [
          {
            "height": 640,
            "url": "https://i.scdn.co/image/ab6761610000e5ebbc1085cf5d08b85cd1836ca2",
            "width": 640
          },
          {
            "height": 320,
            "url": "https://i.scdn.co/image/ab67616100005174bc1085cf5d08b85cd1836ca2",
            "width": 320
          },
          {
            "height": 160,
            "url": "https://i.scdn.co/image/ab6761610000f178bc1085cf5d08b85cd1836ca2",
            "width": 160
          }
        ],
        "name": "Lil Tjay",
        "popularity": 80,
        "type": "artist",
        "uri": "spotify:artist:6jGMq4yGs7aQzuGsMgVgZR"
      },
      {
        "external_urls": {
          "spotify": "https://open.spotify.com/artist/7jVv8c5Fj3E9VhNjxT4snq"
        },
        "followers": {
          "href": null,
          "total": 12428973
        },
        "genres": [
          "lgbtq+ hip hop"
        ],
        "href": "https://api.spotify.com/v1/artists/7jVv8c5Fj3E9VhNjxT4snq",
        "id": "7jVv8c5Fj3E9VhNjxT4snq",
        "images": [
          {
            "height": 640,
            "url": "https://i.scdn.co/image/ab6761610000e5ebd66f1e0c883f319443d68c45",
            "width": 640
          },
          {
            "height": 320,
            "url": "https://i.scdn.co/image/ab67616100005174d66f1e0c883f319443d68c45",
            "width": 320
          },
          {
            "height": 160,
            "url": "https://i.scdn.co/image/ab6761610000f178d66f1e0c883f319443d68c45",
            "width": 160
          }
        ],
        "name": "Lil Nas X",
        "popularity": 79,
        "type": "artist",
        "uri": "spotify:artist:7jVv8c5Fj3E9VhNjxT4snq"
      },
      {
        "external_urls": {
          "spotify": "https://open.spotify.com/artist/4Ga1P7PMIsmqEZqhYZQgDo"
        },
        "followers": {
          "href": null,
          "total": 5995458
        },
        "genres": [
          "melodic rap",
          "pluggnb",
          "rap"
        ],
        "href": "https://api.spotify.com/v1/artists/4Ga1P7PMIsmqEZqhYZQgDo",
        "id": "4Ga1P7PMIsmqEZqhYZQgDo",
        "images": [
          {
            "height": 640,
            "url": "https://i.scdn.co/image/ab6761610000e5eb813e1723a386e3f7a41b8096",
            "width": 640
          },
          {
            "height": 320,
            "url": "https://i.scdn.co/image/ab67616100005174813e1723a386e3f7a41b8096",
            "width": 320
          },
          {
            "height": 160,
            "url": "https://i.scdn.co/image/ab6761610000f178813e1723a386e3f7a41b8096",
            "width": 160
          }
        ],
        "name": "Lil Tecca",
        "popularity": 77,
        "type": "artist",
        "uri": "spotify:artist:4Ga1P7PMIsmqEZqhYZQgDo"
      }
    ],
    "limit": 10,
    "next": "https://api.spotify.com/v1/search?query=Lil&type=artist&offset=10&limit=10",
    "offset": 0,
    "previous": null,
    "total": 18
  }
}